module github.com/whoseyourdd/pandemonium

go 1.22.1

require (
	github.com/google/uuid v1.6.0
	github.com/uptrace/bun v1.2.1
)

require (
	github.com/jinzhu/inflection v1.0.0 // indirect
	github.com/tmthrgd/go-hex v0.0.0-20190904060850-447a3041c3bc // indirect
	github.com/vmihailenco/msgpack/v5 v5.4.1 // indirect
	github.com/vmihailenco/tagparser/v2 v2.0.0 // indirect
	golang.org/x/sys v0.18.0 // indirect
)
